<svg width="456" height="709" viewBox="0 0 456 709" fill="none" xmlns="http://www.w3.org/2000/svg">
<g opacity="0.02">
<path d="M456 153.522V129.903H328.217C321.801 129.903 316.6 135.191 316.6 141.712H242.462L234.273 125.061L212.05 68.5887V11.8094C212.05 5.28764 206.849 0 200.433 0H177.2C157.953 0 142.35 15.8614 142.35 35.4281V70.8561C142.343 71.6503 142.421 72.4415 142.582 73.218L151.411 118.094H-31.8999C-38.3152 118.094 -43.5166 123.381 -43.5166 129.903V177.14C-43.5166 183.662 -38.3152 188.95 -31.8999 188.95V224.378C-31.8999 230.899 -26.6986 236.187 -20.2833 236.187V271.615C-20.2833 278.137 -15.0819 283.425 -8.66661 283.425V318.853C-8.66661 325.374 -3.46525 330.662 2.95005 330.662H200.433C203.515 330.662 206.468 329.416 208.646 327.202L240.093 295.234H316.6V330.662C316.6 337.184 321.801 342.471 328.217 342.471H456V318.853H339.833V153.522H456ZM165.583 35.4281C165.583 28.9064 170.785 23.6187 177.2 23.6187H188.817V70.8561C188.815 72.3559 189.095 73.8439 189.641 75.2374L206.509 118.094H175.144L165.583 69.6752V35.4281ZM316.6 271.615H235.283C232.202 271.615 229.248 272.861 227.07 275.075L195.624 307.043H14.5667V283.425H72.65V259.806H2.95005V236.187H61.0334V212.568H-8.66661V188.95H61.0334V165.331H-20.2833V141.712H216.488L224.886 158.8C226.854 162.804 230.881 165.332 235.283 165.331H316.6V271.615Z" fill="#0061D9"/>
<path d="M392.107 295.234C401.731 295.234 409.532 287.303 409.532 277.52C409.532 267.737 401.731 259.806 392.107 259.806C382.484 259.806 374.682 267.737 374.682 277.52C374.682 287.303 382.484 295.234 392.107 295.234Z" fill="#0061D9"/>
<path d="M246.9 484.183H63.5889L72.4176 439.308C72.5787 438.531 72.6572 437.74 72.6499 436.946V401.518C72.6499 381.951 57.0473 366.09 37.7999 366.09H14.5666C8.15128 366.09 2.94992 371.377 2.94992 377.899V434.679L-19.2728 491.151L-27.4044 507.802H-101.6C-101.6 501.28 -106.801 495.993 -113.217 495.993H-241V519.611H-124.833V684.942H-241V708.561H-113.217C-106.801 708.561 -101.6 703.274 -101.6 696.752V661.324H-25.0927L6.35359 693.292C8.53172 695.506 11.4853 696.752 14.5666 696.752H212.05C218.465 696.752 223.667 691.464 223.667 684.942V649.514C230.082 649.514 235.283 644.227 235.283 637.705V602.277C241.698 602.277 246.9 596.989 246.9 590.468V555.04C253.315 555.04 258.517 549.752 258.517 543.23V495.993C258.517 489.471 253.315 484.183 246.9 484.183ZM25.3585 441.327C25.9044 439.934 26.1847 438.446 26.1833 436.946V389.709H37.7999C44.2152 389.709 49.4166 394.996 49.4166 401.518V435.765L39.8909 484.183H8.52591L25.3585 441.327ZM235.283 531.421H153.967V555.04H223.667V578.658H153.967V602.277H212.05V625.896H142.35V649.514H200.433V673.133H19.3759L-12.0704 641.165C-14.2485 638.951 -17.2021 637.705 -20.2834 637.705H-101.6V531.421H-20.2834C-15.8807 531.422 -11.854 528.894 -9.88649 524.89L-1.48764 507.802H235.283V531.421Z" fill="#0061D9"/>
</g>
</svg>
