<svg width="16" height="21" viewBox="0 0 16 21" fill="none" xmlns="http://www.w3.org/2000/svg">
<path d="M0 12.7517V14.7105H1.63565L0 20.3227L1.95886 20.8516L3.67287 14.7105H10.0294L11.7532 20.8516L13.712 20.3227L12.0764 14.7105H13.5749L15.6709 1.14539L13.712 0.851562L12.7914 6.87507H0V8.83393H1.95886V12.7517H0ZM3.91773 8.83393H12.4976L11.8903 12.7517H3.91773V8.83393Z" fill="white"/>
</svg>
