<svg width="24" height="23" viewBox="0 0 24 23" xmlns="http://www.w3.org/2000/svg">
	<path fill-rule="evenodd" clip-rule="evenodd" d="M11.9551 2.72656V7.0861L11.9551 7.13354C11.955 7.50329 11.955 7.86262 11.9948 8.159C12.0397 8.49312 12.1492 8.87438 12.4659 9.19107C12.7826 9.50776 13.1638 9.61721 13.4979 9.66213C13.7943 9.70198 14.1537 9.7019 14.5234 9.70183L14.5708 9.70183H18.9303V14.9333C18.9303 17.3994 18.9303 18.6325 18.1642 19.3986C17.398 20.1648 16.165 20.1648 13.6988 20.1648H10.2112C7.74506 20.1648 6.51199 20.1648 5.74587 19.3986C4.97974 18.6325 4.97974 17.3994 4.97974 14.9333V7.95802C4.97974 5.49189 4.97974 4.25882 5.74587 3.49269C6.51199 2.72656 7.74506 2.72656 10.2112 2.72656H11.9551ZM13.6989 2.73059V7.0861C13.6989 7.52177 13.7008 7.76081 13.7231 7.92664L13.724 7.93299L13.7303 7.93386C13.8961 7.95616 14.1352 7.95801 14.5708 7.95801H18.9263C18.9174 7.5991 18.8889 7.36159 18.7976 7.14109C18.6648 6.82063 18.4128 6.56862 17.9088 6.06461L17.9088 6.06461L15.5922 3.74807C15.0882 3.24405 14.8362 2.99204 14.5158 2.8593C14.2953 2.76798 14.0578 2.73948 13.6989 2.73059ZM8.46753 12.3176C8.46753 11.836 8.85789 11.4457 9.33944 11.4457L14.5709 11.4457C15.0524 11.4457 15.4428 11.836 15.4428 12.3176C15.4428 12.7991 15.0524 13.1895 14.5709 13.1895H9.33944C8.85789 13.1895 8.46753 12.7991 8.46753 12.3176ZM9.33944 14.9333C8.85789 14.9333 8.46753 15.3237 8.46753 15.8052C8.46753 16.2867 8.85789 16.6771 9.33944 16.6771H12.8271C13.3086 16.6771 13.699 16.2867 13.699 15.8052C13.699 15.3237 13.3086 14.9333 12.8271 14.9333L9.33944 14.9333Z" />
</svg>
