<svg width="20" height="20" viewBox="0 0 20 20" fill="none" xmlns="http://www.w3.org/2000/svg">
<path d="M18.1797 9.65234C18.0938 8.79297 17.6953 7.97266 17.0508 7.37109C16.3828 6.75 15.5156 6.40625 14.6016 6.40625C12.9805 6.40625 11.582 7.47656 11.1445 9.02344C10.8711 8.75 10.4219 8.56641 10 8.56641C9.57812 8.56641 9.12891 8.75 8.85547 9.02344C8.41797 7.47656 7.01953 6.40625 5.39844 6.40625C4.48828 6.40625 3.61719 6.74609 2.94922 7.36719C2.30469 7.97266 1.90625 8.79297 1.82031 9.65234H1.25V10.3555H1.82031C1.90625 11.2148 2.30469 12.0352 2.94922 12.6367C3.61719 13.2578 4.48438 13.6016 5.39844 13.6016C7.38281 13.6016 8.99609 11.9922 8.99609 10.0078C8.99609 10.0039 8.99609 10.0039 8.99609 10.0039C8.99609 9.61719 9.44531 9.16016 10 9.16016C10.5547 9.16016 11.0039 9.61719 11.0039 10.0039C11.0039 10.0039 11.0039 10.0039 11.0039 10.0078C11.0039 11.9922 12.6172 13.6016 14.6016 13.6016C15.5117 13.6016 16.3828 13.2617 17.0508 12.6367C17.6953 12.0352 18.0938 11.2109 18.1797 10.3516H18.75V9.64844H18.1797V9.65234ZM14.6016 13.0117C12.9414 13.0117 11.5938 11.6602 11.5938 10.0039C11.5938 8.34375 12.9453 6.99609 14.6016 6.99609C16.2617 6.99609 17.6094 8.34766 17.6094 10.0039C17.6094 11.6641 16.2617 13.0117 14.6016 13.0117ZM5.39844 13.0117C3.73828 13.0117 2.39062 11.6602 2.39062 10.0039C2.39062 8.34375 3.74219 6.99609 5.39844 6.99609C7.05859 6.99609 8.40625 8.34766 8.40625 10.0039C8.40625 11.6641 7.05859 13.0117 5.39844 13.0117Z" fill="white"/>
</svg>
