<svg width="10" height="8" viewBox="0 0 10 8" fill="none" xmlns="http://www.w3.org/2000/svg">
<path d="M9.81212 2.30717L5.12427 0.275769C5.04499 0.24141 4.95502 0.24141 4.87574 0.275769L0.187888 2.30717C-0.0625999 2.41571 -0.0626585 2.77213 0.187888 2.88067L1.87477 3.61164V5.56288C1.87477 6.61437 3.24753 7.43802 5 7.43802C6.75248 7.43802 8.12524 6.61437 8.12524 5.56288V3.61164L8.43776 3.47622V6.81297C8.43776 6.98557 8.57769 7.1255 8.75028 7.1255C8.92287 7.1255 9.06281 6.98557 9.06281 6.81297V3.20538L9.81212 2.88069C10.0626 2.77215 10.0626 2.41573 9.81212 2.30717ZM5 0.90312L8.90184 2.59393L8.59238 2.72802L5.03876 2.28381C4.86747 2.26254 4.71129 2.38389 4.68988 2.55516C4.66848 2.72642 4.78997 2.88262 4.96123 2.90403L7.46419 3.21691L5 4.28472C2.7956 3.32947 3.26511 3.53293 1.09817 2.59391L5 0.90312ZM7.50019 5.5629C7.50019 5.85736 7.25851 6.16052 6.83711 6.39462C5.8335 6.95218 4.16943 6.95383 3.16289 6.39462C2.7415 6.16052 2.49982 5.85736 2.49982 5.5629V3.88252L4.87574 4.91209C4.95488 4.94639 5.04483 4.94651 5.12427 4.91209L7.50019 3.88252V5.5629Z" fill="black"/>
</svg>
