<svg width="16" height="12" viewBox="0 0 16 12" fill="none" xmlns="http://www.w3.org/2000/svg">
<path d="M14.5 1.5L6.2051 10.7166C5.82183 11.1424 5.15982 11.1598 4.7547 10.7547L1.5 7.5" stroke="white" stroke-width="1.5" stroke-linecap="round"/>
</svg>
