<svg width="50" height="50" viewBox="0 0 50 50" fill="none" xmlns="http://www.w3.org/2000/svg">
<g opacity="0.5">
<path d="M2.34376 48.4375H17.9688V46.875H10.8829L27.5023 39.8438H31.5798C32.3209 39.8429 33.0314 39.5482 33.5554 39.0241C34.0794 38.5001 34.3742 37.7896 34.375 37.0485V34.0452C34.3742 33.3041 34.0794 32.5936 33.5554 32.0696C33.0314 31.5456 32.3209 31.2508 31.5798 31.25H31.3774L32.6357 26.5625H34.2299L44.2508 30.4167C44.3691 30.4622 44.4968 30.4783 44.6227 30.4634C44.7486 30.4486 44.869 30.4033 44.9736 30.3315C45.0781 30.2597 45.1635 30.1636 45.2226 30.0514C45.2817 29.9392 45.3125 29.8143 45.3125 29.6875V26.4844C46.1947 26.3042 46.9876 25.8248 47.5571 25.1273C48.1265 24.4299 48.4375 23.5571 48.4375 22.6566C48.4375 21.7562 48.1265 20.8834 47.5571 20.1859C46.9876 19.4885 46.1947 19.0091 45.3125 18.8289V15.625C45.3125 15.4982 45.2817 15.3733 45.2226 15.2611C45.1635 15.1489 45.0781 15.0528 44.9736 14.981C44.869 14.9092 44.7486 14.8639 44.6227 14.8491C44.4968 14.8343 44.3691 14.8503 44.2508 14.8958L34.2299 18.75H31.25V20.3125H33.5938V25H25.9766C25.9248 25 25.8751 24.9794 25.8385 24.9428C25.8018 24.9062 25.7813 24.8565 25.7813 24.8047V20.5078C25.7813 20.456 25.8018 20.4063 25.8385 20.3697C25.8751 20.3331 25.9248 20.3125 25.9766 20.3125H29.6875V18.75H27.0766C26.8384 18.0775 26.45 17.4681 25.9408 16.9684C26.3433 16.4802 26.5631 15.8671 26.5625 15.2344V13.6719C26.5621 13.1545 26.4152 12.6478 26.1386 12.2105C25.8621 11.7733 25.4673 11.4233 25 11.2012V8.20313C24.998 6.44254 24.2977 4.75463 23.0528 3.5097C21.8079 2.26477 20.12 1.5645 18.3594 1.56251H12.8906C11.2158 1.56035 9.60249 2.19317 8.37579 3.3334L9.43829 4.47901C10.3763 3.60718 11.61 3.12334 12.8906 3.12501H18.3594C19.7057 3.12653 20.9965 3.66204 21.9485 4.61404C22.9005 5.56604 23.436 6.8568 23.4375 8.20313V10.9375H21.8607C21.5237 10.9366 21.1925 10.8488 20.8992 10.6827C20.6058 10.5167 20.3602 10.2778 20.1859 9.98926L18.6387 7.41055C18.5693 7.29484 18.4711 7.19908 18.3537 7.13259C18.2363 7.06611 18.1036 7.03116 17.9687 7.03116C17.8338 7.03116 17.7011 7.06611 17.5837 7.13259C17.4663 7.19908 17.3681 7.29484 17.2987 7.41055L17.2304 7.52354C16.6032 8.56234 15.719 9.42212 14.6631 10.0201C13.6072 10.618 12.4151 10.934 11.2017 10.9375H7.81251V8.20313C7.81199 7.3136 8.04535 6.43956 8.48917 5.66866L7.13585 4.88741C6.5551 5.89592 6.24961 7.03936 6.25001 8.20313V11.2012C5.78272 11.4233 5.38793 11.7733 5.11139 12.2105C4.83485 12.6478 4.68788 13.1545 4.68751 13.6719V15.2344C4.68685 15.8673 4.90682 16.4806 5.30958 16.9689C4.63377 17.6328 4.17485 18.4858 3.99323 19.4155C3.81161 20.3453 3.9158 21.3083 4.29209 22.1777C2.98246 23.0708 2.06096 24.4281 1.71406 25.9748C1.36716 27.5216 1.62076 29.1423 2.42354 30.5092C2.15221 30.7651 1.93591 31.0736 1.78787 31.4159C1.63982 31.7582 1.56314 32.1271 1.56251 32.5V47.6563C1.56251 47.8635 1.64482 48.0622 1.79133 48.2087C1.93784 48.3552 2.13655 48.4375 2.34376 48.4375ZM6.87276 46.875H3.12501V32.5C3.12536 32.2762 3.18962 32.0571 3.31023 31.8685C3.43085 31.6799 3.6028 31.5297 3.80586 31.4356L10.2356 28.468C10.2735 28.5455 10.324 28.6163 10.3851 28.6774L10.9293 29.2216C12.1757 30.4651 13.8644 31.1635 15.625 31.1635C17.3856 31.1635 19.0743 30.4651 20.3207 29.2216L20.8649 28.6774C20.926 28.6163 20.9765 28.5455 21.0145 28.468L25 30.3076V32.7184L23.7142 34.5186L16.1105 37.6292L16.7021 39.0753L23.9737 36.1006L25.0314 37.4228L26.0892 38.745L6.87276 46.875ZM14.3966 23.9301C14.7786 24.1201 15.1997 24.2185 15.6264 24.2174C16.0531 24.2163 16.4737 24.1158 16.8548 23.9238L17.7355 23.4778L19.4044 27.9283L19.2158 28.1169C18.2627 29.0678 16.9713 29.6018 15.625 29.6018C14.2787 29.6018 12.9873 29.0678 12.0342 28.1169L11.8456 27.9283L13.5109 23.4873L14.3966 23.9301ZM32.8125 34.0452V37.0485C32.8121 37.3754 32.6821 37.6887 32.451 37.9198C32.2199 38.1509 31.9066 38.2809 31.5798 38.2813H27.7192L25.1979 35.1296L26.417 33.4229C26.5116 33.2904 26.5625 33.1316 26.5625 32.9688V29.7608C27.0112 29.884 27.4071 30.1511 27.6894 30.5211C27.9717 30.891 28.1247 31.3434 28.125 31.8087V32.0313C28.125 32.2385 28.2073 32.4372 28.3538 32.5837C28.5003 32.7302 28.6991 32.8125 28.9063 32.8125H31.5798C31.9066 32.8129 32.2199 32.9429 32.451 33.174C32.6821 33.4051 32.8121 33.7184 32.8125 34.0452ZM29.6457 31.25C29.5282 30.4722 29.163 29.753 28.6042 29.1992C28.4562 29.0515 28.2958 28.9166 28.125 28.7959V26.582H31.0126L29.7597 31.25H29.6457ZM35.1563 20.0684L40.625 17.9649V27.3485L35.1563 25.2451V20.0684ZM46.875 22.6563C46.8744 23.1408 46.724 23.6133 46.4442 24.009C46.1645 24.4046 45.7692 24.704 45.3125 24.8661V20.4464C45.7692 20.6085 46.1645 20.9079 46.4442 21.3035C46.724 21.6992 46.8744 22.1717 46.875 22.6563ZM43.75 28.55L42.1875 27.9492V17.3633L43.75 16.7623V28.55ZM25.9766 26.5625H26.5625V28.1678C26.3735 28.139 26.1826 28.1244 25.9914 28.1243L25.7788 28.125C25.6236 28.1255 25.472 28.1722 25.3435 28.2591C25.2149 28.3461 25.1151 28.4694 25.0569 28.6133L20.7175 26.6105L20.641 26.7765L19.1379 22.7682L20.6218 22.0167C21.2351 21.7084 21.7504 21.2353 22.1098 20.6504C22.4691 20.0655 22.6584 19.392 22.6563 18.7056V17.9688H23.8281C24.087 17.9689 24.3445 17.9323 24.593 17.8599C24.9314 18.1274 25.2111 18.4618 25.4145 18.8422C25.0662 18.9602 24.7636 19.1843 24.5492 19.483C24.3347 19.7817 24.2192 20.1401 24.2188 20.5078V24.8047C24.2193 25.2707 24.4047 25.7175 24.7342 26.0471C25.0637 26.3766 25.5105 26.562 25.9766 26.5625ZM22.6563 12.5H23.8281C24.1388 12.5003 24.4367 12.6239 24.6564 12.8436C24.8761 13.0633 24.9997 13.3612 25 13.6719V15.2344C24.9997 15.5451 24.8761 15.843 24.6564 16.0626C24.4367 16.2823 24.1388 16.4059 23.8281 16.4063H22.6563V12.5ZM17.9246 9.25782L18.846 10.7935C19.0922 11.2011 19.4182 11.5547 19.8045 11.8332C20.1907 12.1117 20.6293 12.3094 21.0938 12.4143V18.7056C21.0949 19.103 20.9853 19.4928 20.7773 19.8314C20.5692 20.1699 20.2709 20.4438 19.9158 20.6223L16.1489 22.5299C15.9856 22.6121 15.8053 22.6551 15.6225 22.6556C15.4396 22.6561 15.2592 22.6139 15.0954 22.5325L11.344 20.6568C10.9862 20.4795 10.6853 20.2054 10.4754 19.8658C10.2655 19.5261 10.1549 19.1345 10.1563 18.7352V12.5H11.2012C12.4929 12.4962 13.7673 12.203 14.9308 11.6419C16.0943 11.0809 17.1173 10.2662 17.9246 9.25782ZM6.25001 13.6719C6.25034 13.3612 6.37391 13.0633 6.59361 12.8436C6.81331 12.6239 7.11118 12.5003 7.42188 12.5H8.59376V16.4063H7.42188C7.11118 16.4059 6.81331 16.2823 6.59361 16.0626C6.37391 15.843 6.25034 15.5451 6.25001 15.2344V13.6719ZM5.68946 23.1633C5.78759 23.1133 5.87405 23.0432 5.94318 22.9575C6.01231 22.8718 6.06253 22.7724 6.09056 22.6659C6.1186 22.5594 6.1238 22.4482 6.10584 22.3396C6.08788 22.231 6.04715 22.1273 5.98633 22.0356C5.55471 21.3821 5.38412 20.5904 5.5083 19.8171C5.63249 19.0438 6.0424 18.3454 6.65694 17.8599C6.90547 17.9323 7.16303 17.9689 7.42188 17.9688H8.59376V18.7352C8.59141 19.4248 8.78236 20.1013 9.14494 20.688C9.50752 21.2747 10.0272 21.748 10.6451 22.0543L12.1058 22.7847L10.6092 26.7756L10.5327 26.6096L3.77491 29.7285C3.4495 29.1766 3.24057 28.5638 3.16099 27.9281C3.08141 27.2923 3.13287 26.6469 3.3122 26.0318C3.49152 25.4167 3.79492 24.8448 4.20369 24.3514C4.61245 23.858 5.11793 23.4535 5.68897 23.1629L5.68946 23.1633Z" fill="#E34E09"/>
<path d="M13.2812 14.0625H11.7188V15.625H13.2812V14.0625Z" fill="#E34E09"/>
<path d="M19.5312 14.0625H17.9688V15.625H19.5312V14.0625Z" fill="#E34E09"/>
<path d="M15.625 20.7031C16.9393 20.7031 17.9688 19.8452 17.9688 18.75H16.4062C16.4062 18.8877 16.1097 19.1406 15.625 19.1406C15.1403 19.1406 14.8438 18.8877 14.8438 18.75H13.2812C13.2812 19.8452 14.3107 20.7031 15.625 20.7031Z" fill="#E34E09"/>
<path d="M32.0312 21.875H27.3438V23.4375H32.0312V21.875Z" fill="#E34E09"/>
<path d="M7.8125 41.0238V38.2812H6.25V42.1875C6.25007 42.3156 6.28166 42.4418 6.342 42.5549C6.40233 42.6679 6.48955 42.7644 6.59596 42.8358C6.70238 42.9072 6.82473 42.9513 6.95222 42.9643C7.07972 42.9773 7.20844 42.9587 7.32705 42.9102L14.966 39.7852L14.3743 38.3398L7.8125 41.0238Z" fill="#E34E09"/>
<path d="M22.6562 42.9688V46.875H19.5312V48.4375H28.9062C29.1135 48.4375 29.3122 48.3552 29.4587 48.2087C29.6052 48.0622 29.6875 47.8635 29.6875 47.6562V41.4062H28.125V46.875H24.2188V42.9688H22.6562Z" fill="#E34E09"/>
<path d="M32.3509 9.79277C32.6319 9.79285 32.9115 9.75481 33.1822 9.67969L34.4035 11.795L33.0503 12.5763L33.8315 13.9294L35.1847 13.1481L35.966 14.5014L37.3191 13.7201L36.5379 12.3669L37.891 11.5856L37.1097 10.2325L35.7566 11.0138L34.5352 8.89844C35.0527 8.39092 35.3777 7.71936 35.4548 6.99866C35.5318 6.27795 35.356 5.55287 34.9575 4.94745C34.559 4.34203 33.9625 3.89389 33.27 3.67968C32.5776 3.46548 31.8323 3.49852 31.1615 3.77316C30.4907 4.0478 29.9362 4.54697 29.5928 5.18529C29.2495 5.8236 29.1385 6.56139 29.279 7.27245C29.4195 7.98351 29.8027 8.62367 30.3631 9.0834C30.9234 9.54314 31.6261 9.7939 32.3509 9.79277ZM31.5644 5.31523C31.8009 5.17786 32.0695 5.1054 32.343 5.10517C32.4804 5.10528 32.6173 5.1234 32.75 5.15908C33.0992 5.25258 33.4051 5.46427 33.6157 5.75808C33.8264 6.05189 33.9286 6.40963 33.905 6.77036C33.8814 7.13109 33.7335 7.47247 33.4864 7.73635C33.2393 8.00023 32.9084 8.17028 32.55 8.21751C32.1916 8.26475 31.8279 8.18625 31.5209 7.9954C31.2139 7.80454 30.9825 7.51314 30.8663 7.17084C30.7501 6.82855 30.7561 6.45653 30.8834 6.11819C31.0107 5.77985 31.2514 5.49611 31.5644 5.31533V5.31523Z" fill="#E34E09"/>
<path d="M46.026 34.6356C45.9078 34.1043 45.6978 33.5978 45.4053 33.1389C45.3437 33.0423 45.2617 32.9605 45.165 32.8992C45.0683 32.8378 44.9594 32.7984 44.8458 32.7838C43.6764 32.6347 42.4936 32.9312 41.533 33.6145C40.5723 34.2978 39.904 35.3178 39.6612 36.4714C39.005 36.9143 38.5407 37.5891 38.3615 38.3602C37.6728 38.5191 37.0582 38.9067 36.6181 39.4598C36.1781 40.013 35.9385 40.6989 35.9385 41.4058C35.9385 42.1126 36.1781 42.7986 36.6181 43.3517C37.0582 43.9049 37.6728 44.2925 38.3615 44.4514C38.5204 45.1401 38.908 45.7547 39.4612 46.1948C40.0143 46.6348 40.7003 46.8744 41.4071 46.8744C42.114 46.8744 42.7999 46.6348 43.3531 46.1948C43.9062 45.7547 44.2939 45.1401 44.4527 44.4514C45.0833 44.3059 45.6532 43.9683 46.0836 43.4852C46.5141 43.002 46.784 42.3971 46.856 41.7541C46.928 41.111 46.7986 40.4614 46.4856 39.895C46.1727 39.3286 45.6916 38.8733 45.1088 38.592C45.5494 38.044 45.8607 37.4036 46.0195 36.7186C46.1783 36.0336 46.1805 35.3216 46.026 34.6356ZM43.568 34.3843C43.7986 34.3332 44.0341 34.3078 44.2703 34.3084C44.504 34.7981 44.6065 35.34 44.5678 35.8812C44.5291 36.4224 44.3505 36.9443 44.0495 37.3957C43.7769 36.9634 43.4024 36.6045 42.9589 36.3505C42.5154 36.0965 42.0164 35.955 41.5056 35.9386C41.7191 35.5478 42.0135 35.2071 42.3692 34.9391C42.7248 34.671 43.1335 34.4819 43.568 34.3843ZM43.7506 42.9683C43.5434 42.9683 43.3447 43.0506 43.1982 43.1971C43.0516 43.3436 42.9693 43.5423 42.9693 43.7495C42.9693 44.1639 42.8047 44.5614 42.5117 44.8544C42.2187 45.1474 41.8212 45.312 41.4068 45.312C40.9924 45.312 40.595 45.1474 40.302 44.8544C40.009 44.5614 39.8443 44.1639 39.8443 43.7495C39.8443 43.5423 39.762 43.3436 39.6155 43.1971C39.469 43.0506 39.2703 42.9683 39.0631 42.9683C38.6487 42.9683 38.2513 42.8037 37.9582 42.5106C37.6652 42.2176 37.5006 41.8202 37.5006 41.4058C37.5006 40.9914 37.6652 40.5939 37.9582 40.3009C38.2513 40.0079 38.6487 39.8433 39.0631 39.8433C39.2703 39.8433 39.469 39.761 39.6155 39.6145C39.762 39.4679 39.8443 39.2692 39.8443 39.062C39.8443 38.6476 40.009 38.2502 40.302 37.9572C40.595 37.6641 40.9924 37.4995 41.4068 37.4995C41.8212 37.4995 42.2187 37.6641 42.5117 37.9572C42.8047 38.2502 42.9693 38.6476 42.9693 39.062C42.9693 39.2692 43.0516 39.4679 43.1982 39.6145C43.3447 39.761 43.5434 39.8433 43.7506 39.8433C44.165 39.8433 44.5624 40.0079 44.8554 40.3009C45.1485 40.5939 45.3131 40.9914 45.3131 41.4058C45.3131 41.8202 45.1485 42.2176 44.8554 42.5106C44.5624 42.8037 44.165 42.9683 43.7506 42.9683Z" fill="#E34E09"/>
<path d="M42.1875 40.625H40.625V42.1875H42.1875V40.625Z" fill="#E34E09"/>
</g>
</svg>
